%YAML 1.1
%TAG !u! tag:unity3d.com,2011:
--- !u!114 &11400000
MonoBehaviour:
  m_ObjectHideFlags: 0
  m_CorrespondingSourceObject: {fileID: 0}
  m_PrefabInstance: {fileID: 0}
  m_PrefabAsset: {fileID: 0}
  m_GameObject: {fileID: 0}
  m_Enabled: 1
  m_EditorHideFlags: 0
  m_Script: {fileID: 11500000, guid: 95e66c6366d904e98bc83428217d4fd7, type: 3}
  m_Name: Hello World
  m_EditorClassIdentifier: 
  _data:
    _json: '{"graph":{"variables":{"Kind":"Flow","collection":{"$content":[],"$version":"A"},"$version":"A"},"controlInputDefinitions":[],"controlOutputDefinitions":[],"valueInputDefinitions":[],"valueOutputDefinitions":[],"title":null,"summary":null,"pan":{"x":0.0,"y":0.0},"zoom":1.0,"elements":[{"coroutine":false,"defaultValues":{},"position":{"x":-293.0,"y":-130.0},"guid":"bc048448-f9d7-4382-90d0-6af8db695f86","$version":"A","$type":"Unity.VisualScripting.Update","$id":"9"},{"chainable":false,"member":{"name":"print","parameterTypes":["System.Object"],"targetType":"UnityEngine.MonoBehaviour","targetTypeName":"UnityEngine.MonoBehaviour","$version":"A"},"defaultValues":{},"position":{"x":61.0,"y":-147.0},"guid":"1fdfed6d-b1b1-477a-be39-a59f8cf1648b","$version":"A","$type":"Unity.VisualScripting.InvokeMember","$id":"11"},{"specifyFallback":false,"kind":"Object","defaultValues":{"name":{"$content":"Mensaje","$type":"System.String"},"object":null},"position":{"x":-315.0,"y":19.0},"guid":"cde8e9b6-3cfc-4b23-a1f1-1eec334d068a","$version":"A","$type":"Unity.VisualScripting.GetVariable","$id":"14"},{"sourceUnit":{"$ref":"9"},"sourceKey":"trigger","destinationUnit":{"$ref":"11"},"destinationKey":"enter","guid":"03a3c58c-991a-45ee-bc97-2e503012fdb0","$type":"Unity.VisualScripting.ControlConnection"},{"sourceUnit":{"$ref":"14"},"sourceKey":"value","destinationUnit":{"$ref":"11"},"destinationKey":"%message","guid":"9fa3cdaf-2ad7-4a0a-a4d0-bf6a2cf43f0f","$type":"Unity.VisualScripting.ValueConnection"}],"$version":"A"}}'
    _objectReferences: []
